{
	"recipes": [{
		"1": {
			"id": 1,
			"title": "Catarinas caprese",
			"image": "recipe1.png",
			"cost_total_mx": 34.4,
			"portions": 3,
			"portion_size_g": 140.9,
			"time_min": 20,
			"tool": "cuchillo",
			"nutrional_classification": "rico en vitamina A, C, K, E. ",
			"gastronomic_classification": "Snack",
			"steps": [

				"Lavar y desinfectar tomates. ",
				"Cortar el queso mozzarella en 3 rodajas.",
				"Cortar los tomates cherry a la mitad.",
				"En la rodaja de queso mozzarella poner una hoja grande de albahaca, después poner la mitad del tomate cherry arriba del albahaca. ",
				"Cortar las aceitunas negras para formar la cabeza de la Catarina, después cortar pedazos muy pequeños para hacer los puntos de las catarinas. ",
				"Poner aceite de oliva en cada rebanada de queso.  ",
				"Montaje: estructurado; piramidal (poner las catarinas en el centro del plato viéndose cada una de enfrente)"


			],
			"ingredients": [{
				"Queso mozzarella": {
					"quantity_mx": "3 rebanadas",
					"quantity_g": 90,
					"cost_mx": 16,
					"kcal": 267
				},
				"Tomate cherry ": {
					"quantity_mx": "3 tomates",
					"quantity_g": 75,
					"cost_mx": 10.4,
					"kcal": 12.7
				},
				"Albahaca ": {
					"quantity_mx": "3 hojas",
					"cost_mx": 2
				},
				"Aceitunas negras sin hueso ": {
					"quantity_mx": "6 aceitunas",
					"quantity_g": 30,
					"cost_mx": 4,
					"kcal": 55.2
				},
				"Aceite de oliva": {
					"quantity_mx": "2 cucharaditas",
					"quantity_g": 10,
					"cost_mx": 2,
					"kcal": 88
				}

			}],
			"tips": [
				"Tip Nutrimental: se puede cambiar el queso mozzarella por queso panela para tener menor aporte de grasa. ",
				"Tip Gastronómico: se puede usar más tomates para formar dos catarinas por rebanada. "

			]
		},

		"2": {
			"id": 2,
			"title": "Ensalada de atún",
			"image": "recipe2.png",
			"steps": [

				"Lavar y desinfectar tomates. ",
				"Cortar el queso mozzarella en 3 rodajas.",
				"Cortar los tomates cherry a la mitad.",
				"En la rodaja de queso mozzarella poner una hoja grande de albahaca, después poner la mitad del tomate cherry arriba del albahaca. ",
				"Cortar las aceitunas negras para formar la cabeza de la Catarina, después cortar pedazos muy pequeños para hacer los puntos de las catarinas. ",
				"Poner aceite de oliva en cada rebanada de queso.  ",
				"Montaje: estructurado; piramidal (poner las catarinas en el centro del plato viéndose cada una de enfrente)"


			]
		},

		"3": {
			"id": 1,
			"title": "Catarinas caprese",
			"image": "recipe1.jpg",
			"steps": [

				"Lavar y desinfectar tomates. ",
				"Cortar el queso mozzarella en 3 rodajas.",
				"Cortar los tomates cherry a la mitad.",
				"En la rodaja de queso mozzarella poner una hoja grande de albahaca, después poner la mitad del tomate cherry arriba del albahaca. ",
				"Cortar las aceitunas negras para formar la cabeza de la Catarina, después cortar pedazos muy pequeños para hacer los puntos de las catarinas. ",
				"Poner aceite de oliva en cada rebanada de queso.  ",
				"Montaje: estructurado; piramidal (poner las catarinas en el centro del plato viéndose cada una de enfrente)"


			]
		}

	}]
}